<svg width="192" height="44" viewBox="0 0 192 44" fill="none" xmlns="http://www.w3.org/2000/svg">
<path d="M59.2227 29C59.076 29 58.956 28.9533 58.8627 28.86C58.7693 28.7667 58.7227 28.6467 58.7227 28.5V18.14H55.1627C55.016 18.14 54.896 18.0933 54.8027 18C54.7093 17.8933 54.6627 17.7733 54.6627 17.64V15.5C54.6627 15.3533 54.7093 15.2333 54.8027 15.14C54.896 15.0467 55.016 15 55.1627 15H65.9227C66.0693 15 66.1893 15.0467 66.2827 15.14C66.376 15.2333 66.4227 15.3533 66.4227 15.5V17.64C66.4227 17.7733 66.376 17.8933 66.2827 18C66.1893 18.0933 66.0693 18.14 65.9227 18.14H62.3627V28.5C62.3627 28.6467 62.316 28.7667 62.2227 28.86C62.1293 28.9533 62.0093 29 61.8627 29H59.2227ZM71.0625 29.2C69.4892 29.2 68.2359 28.7733 67.3025 27.92C66.3692 27.0667 65.8825 25.8 65.8425 24.12C65.8425 24.0267 65.8425 23.9067 65.8425 23.76C65.8425 23.6133 65.8425 23.5 65.8425 23.42C65.8825 22.3667 66.1159 21.4667 66.5425 20.72C66.9825 19.96 67.5825 19.3867 68.3425 19C69.1159 18.6 70.0159 18.4 71.0425 18.4C72.2159 18.4 73.1825 18.6333 73.9425 19.1C74.7159 19.5667 75.2959 20.2 75.6825 21C76.0692 21.8 76.2625 22.7133 76.2625 23.74V24.22C76.2625 24.3667 76.2092 24.4867 76.1025 24.58C76.0092 24.6733 75.8959 24.72 75.7625 24.72H69.3625C69.3625 24.7333 69.3625 24.7533 69.3625 24.78C69.3625 24.8067 69.3625 24.8333 69.3625 24.86C69.3759 25.2467 69.4425 25.6 69.5625 25.92C69.6825 26.24 69.8692 26.4933 70.1225 26.68C70.3759 26.8667 70.6825 26.96 71.0425 26.96C71.3092 26.96 71.5292 26.92 71.7025 26.84C71.8892 26.7467 72.0425 26.6467 72.1625 26.54C72.2825 26.42 72.3759 26.32 72.4425 26.24C72.5625 26.1067 72.6559 26.0267 72.7225 26C72.8025 25.96 72.9225 25.94 73.0825 25.94H75.5625C75.6959 25.94 75.8025 25.98 75.8825 26.06C75.9759 26.1267 76.0159 26.2267 76.0025 26.36C75.9892 26.5867 75.8759 26.86 75.6625 27.18C75.4492 27.5 75.1359 27.82 74.7225 28.14C74.3225 28.4467 73.8159 28.7 73.2025 28.9C72.5892 29.1 71.8759 29.2 71.0625 29.2ZM69.3625 22.74H72.7425V22.7C72.7425 22.2733 72.6759 21.9 72.5425 21.58C72.4225 21.26 72.2292 21.0133 71.9625 20.84C71.7092 20.6667 71.4025 20.58 71.0425 20.58C70.6825 20.58 70.3759 20.6667 70.1225 20.84C69.8825 21.0133 69.6959 21.26 69.5625 21.58C69.4292 21.9 69.3625 22.2733 69.3625 22.7V22.74ZM82.9175 29.2C81.9309 29.2 81.0575 29.02 80.2975 28.66C79.5375 28.3 78.9309 27.78 78.4775 27.1C78.0375 26.4067 77.7975 25.58 77.7575 24.62C77.7442 24.4067 77.7375 24.14 77.7375 23.82C77.7375 23.4867 77.7442 23.2133 77.7575 23C77.7975 22.0267 78.0375 21.2 78.4775 20.52C78.9175 19.8267 79.5175 19.3 80.2775 18.94C81.0509 18.58 81.9309 18.4 82.9175 18.4C83.8375 18.4 84.6242 18.5333 85.2775 18.8C85.9309 19.0533 86.4642 19.3733 86.8775 19.76C87.2909 20.1467 87.5975 20.5467 87.7975 20.96C88.0109 21.36 88.1242 21.7133 88.1375 22.02C88.1509 22.1533 88.1042 22.2733 87.9975 22.38C87.8909 22.4733 87.7709 22.52 87.6375 22.52H85.0975C84.9509 22.52 84.8375 22.4867 84.7575 22.42C84.6775 22.3533 84.6042 22.2533 84.5375 22.12C84.3775 21.7067 84.1709 21.4133 83.9175 21.24C83.6775 21.0667 83.3642 20.98 82.9775 20.98C82.4442 20.98 82.0309 21.1533 81.7375 21.5C81.4575 21.8467 81.3042 22.38 81.2775 23.1C81.2642 23.6333 81.2642 24.1067 81.2775 24.52C81.3042 25.2533 81.4575 25.7867 81.7375 26.12C82.0309 26.4533 82.4442 26.62 82.9775 26.62C83.3909 26.62 83.7175 26.5333 83.9575 26.36C84.1975 26.1867 84.3909 25.8933 84.5375 25.48C84.6042 25.3467 84.6775 25.2467 84.7575 25.18C84.8375 25.1133 84.9509 25.08 85.0975 25.08H87.6375C87.7709 25.08 87.8909 25.1333 87.9975 25.24C88.1042 25.3333 88.1509 25.4467 88.1375 25.58C88.1242 25.8067 88.0575 26.0733 87.9375 26.38C87.8175 26.6733 87.6309 26.9867 87.3775 27.32C87.1242 27.6533 86.7909 27.9667 86.3775 28.26C85.9775 28.54 85.4909 28.7667 84.9175 28.94C84.3442 29.1133 83.6775 29.2 82.9175 29.2ZM90.4344 29C90.2877 29 90.1677 28.9533 90.0744 28.86C89.9811 28.7667 89.9344 28.6467 89.9344 28.5V15.3C89.9344 15.1533 89.9811 15.0333 90.0744 14.94C90.1677 14.8467 90.2877 14.8 90.4344 14.8H92.9944C93.1411 14.8 93.2611 14.8467 93.3544 14.94C93.4477 15.0333 93.4944 15.1533 93.4944 15.3V19.76C93.8544 19.3467 94.2944 19.02 94.8144 18.78C95.3477 18.5267 95.9611 18.4 96.6544 18.4C97.4277 18.4 98.1144 18.5733 98.7144 18.92C99.3277 19.2667 99.8077 19.78 100.154 20.46C100.501 21.1267 100.674 21.9467 100.674 22.92V28.5C100.674 28.6467 100.628 28.7667 100.534 28.86C100.441 28.9533 100.321 29 100.174 29H97.5944C97.4611 29 97.3411 28.9533 97.2344 28.86C97.1411 28.7667 97.0944 28.6467 97.0944 28.5V23.04C97.0944 22.4133 96.9411 21.9333 96.6344 21.6C96.3411 21.2533 95.9011 21.08 95.3144 21.08C94.7677 21.08 94.3277 21.2533 93.9944 21.6C93.6611 21.9333 93.4944 22.4133 93.4944 23.04V28.5C93.4944 28.6467 93.4477 28.7667 93.3544 28.86C93.2611 28.9533 93.1411 29 92.9944 29H90.4344Z" fill="black"/>
<path d="M108.902 29.2C107.636 29.2 106.549 28.9933 105.642 28.58C104.749 28.1667 104.049 27.56 103.542 26.76C103.049 25.96 102.776 24.9667 102.722 23.78C102.709 23.2333 102.702 22.6467 102.702 22.02C102.702 21.3933 102.709 20.7933 102.722 20.22C102.776 19.06 103.056 18.08 103.562 17.28C104.069 16.4667 104.776 15.8533 105.682 15.44C106.589 15.0133 107.662 14.8 108.902 14.8C109.782 14.8 110.596 14.9133 111.342 15.14C112.089 15.3533 112.742 15.6733 113.302 16.1C113.862 16.5133 114.296 17.02 114.602 17.62C114.922 18.2067 115.089 18.8733 115.102 19.62C115.116 19.74 115.076 19.84 114.982 19.92C114.902 20 114.802 20.04 114.682 20.04H111.982C111.809 20.04 111.676 20.0067 111.582 19.94C111.489 19.86 111.409 19.72 111.342 19.52C111.156 18.8133 110.849 18.3333 110.422 18.08C110.009 17.8133 109.496 17.68 108.882 17.68C108.149 17.68 107.569 17.8867 107.142 18.3C106.716 18.7 106.482 19.3733 106.442 20.32C106.402 21.4133 106.402 22.5333 106.442 23.68C106.482 24.6267 106.716 25.3067 107.142 25.72C107.569 26.12 108.149 26.32 108.882 26.32C109.496 26.32 110.016 26.1867 110.442 25.92C110.869 25.6533 111.169 25.1733 111.342 24.48C111.396 24.28 111.469 24.1467 111.562 24.08C111.669 24 111.809 23.96 111.982 23.96H114.682C114.802 23.96 114.902 24 114.982 24.08C115.076 24.16 115.116 24.26 115.102 24.38C115.089 25.1267 114.922 25.8 114.602 26.4C114.296 26.9867 113.862 27.4933 113.302 27.92C112.742 28.3333 112.089 28.6533 111.342 28.88C110.596 29.0933 109.782 29.2 108.902 29.2ZM121.905 29.2C120.785 29.2 119.839 29.02 119.065 28.66C118.305 28.3 117.719 27.7867 117.305 27.12C116.905 26.44 116.679 25.6333 116.625 24.7C116.612 24.4333 116.605 24.1333 116.605 23.8C116.605 23.4533 116.612 23.1533 116.625 22.9C116.679 21.9533 116.919 21.1467 117.345 20.48C117.772 19.8133 118.365 19.3 119.125 18.94C119.899 18.58 120.825 18.4 121.905 18.4C122.999 18.4 123.925 18.58 124.685 18.94C125.459 19.3 126.059 19.8133 126.485 20.48C126.912 21.1467 127.152 21.9533 127.205 22.9C127.219 23.1533 127.225 23.4533 127.225 23.8C127.225 24.1333 127.219 24.4333 127.205 24.7C127.152 25.6333 126.919 26.44 126.505 27.12C126.105 27.7867 125.519 28.3 124.745 28.66C123.985 29.02 123.039 29.2 121.905 29.2ZM121.905 26.76C122.505 26.76 122.939 26.58 123.205 26.22C123.485 25.86 123.645 25.32 123.685 24.6C123.699 24.4 123.705 24.1333 123.705 23.8C123.705 23.4667 123.699 23.2 123.685 23C123.645 22.2933 123.485 21.76 123.205 21.4C122.939 21.0267 122.505 20.84 121.905 20.84C121.319 20.84 120.885 21.0267 120.605 21.4C120.325 21.76 120.172 22.2933 120.145 23C120.132 23.2 120.125 23.4667 120.125 23.8C120.125 24.1333 120.132 24.4 120.145 24.6C120.172 25.32 120.325 25.86 120.605 26.22C120.885 26.58 121.319 26.76 121.905 26.76ZM133.072 29.2C132.432 29.2 131.852 29.1 131.332 28.9C130.826 28.6867 130.386 28.38 130.012 27.98C129.652 27.5667 129.372 27.0733 129.172 26.5C128.972 25.9133 128.859 25.2467 128.832 24.5C128.819 24.2333 128.812 24 128.812 23.8C128.812 23.5867 128.819 23.3533 128.832 23.1C128.859 22.38 128.972 21.7333 129.172 21.16C129.372 20.5867 129.652 20.0933 130.012 19.68C130.372 19.2667 130.812 18.9533 131.332 18.74C131.852 18.5133 132.432 18.4 133.072 18.4C133.739 18.4 134.312 18.5133 134.792 18.74C135.272 18.9533 135.679 19.2333 136.012 19.58V15.3C136.012 15.1533 136.059 15.0333 136.152 14.94C136.246 14.8467 136.366 14.8 136.512 14.8H138.952C139.086 14.8 139.199 14.8467 139.292 14.94C139.399 15.0333 139.452 15.1533 139.452 15.3V28.5C139.452 28.6467 139.399 28.7667 139.292 28.86C139.199 28.9533 139.086 29 138.952 29H136.692C136.546 29 136.426 28.9533 136.332 28.86C136.239 28.7667 136.192 28.6467 136.192 28.5V27.86C135.872 28.2467 135.459 28.5667 134.952 28.82C134.446 29.0733 133.819 29.2 133.072 29.2ZM134.152 26.52C134.606 26.52 134.959 26.4267 135.212 26.24C135.479 26.04 135.672 25.7867 135.792 25.48C135.926 25.1733 135.999 24.84 136.012 24.48C136.026 24.2133 136.032 23.96 136.032 23.72C136.032 23.48 136.026 23.2333 136.012 22.98C135.999 22.6467 135.926 22.34 135.792 22.06C135.659 21.7667 135.459 21.5333 135.192 21.36C134.926 21.1733 134.579 21.08 134.152 21.08C133.712 21.08 133.359 21.1733 133.092 21.36C132.839 21.5467 132.659 21.8 132.552 22.12C132.446 22.44 132.379 22.7933 132.352 23.18C132.312 23.5933 132.312 24.0067 132.352 24.42C132.379 24.8067 132.446 25.16 132.552 25.48C132.659 25.8 132.839 26.0533 133.092 26.24C133.359 26.4267 133.712 26.52 134.152 26.52ZM146.609 29.2C145.036 29.2 143.783 28.7733 142.849 27.92C141.916 27.0667 141.429 25.8 141.389 24.12C141.389 24.0267 141.389 23.9067 141.389 23.76C141.389 23.6133 141.389 23.5 141.389 23.42C141.429 22.3667 141.663 21.4667 142.089 20.72C142.529 19.96 143.129 19.3867 143.889 19C144.663 18.6 145.563 18.4 146.589 18.4C147.763 18.4 148.729 18.6333 149.489 19.1C150.263 19.5667 150.843 20.2 151.229 21C151.616 21.8 151.809 22.7133 151.809 23.74V24.22C151.809 24.3667 151.756 24.4867 151.649 24.58C151.556 24.6733 151.443 24.72 151.309 24.72H144.909C144.909 24.7333 144.909 24.7533 144.909 24.78C144.909 24.8067 144.909 24.8333 144.909 24.86C144.923 25.2467 144.989 25.6 145.109 25.92C145.229 26.24 145.416 26.4933 145.669 26.68C145.923 26.8667 146.229 26.96 146.589 26.96C146.856 26.96 147.076 26.92 147.249 26.84C147.436 26.7467 147.589 26.6467 147.709 26.54C147.829 26.42 147.923 26.32 147.989 26.24C148.109 26.1067 148.203 26.0267 148.269 26C148.349 25.96 148.469 25.94 148.629 25.94H151.109C151.243 25.94 151.349 25.98 151.429 26.06C151.523 26.1267 151.563 26.2267 151.549 26.36C151.536 26.5867 151.423 26.86 151.209 27.18C150.996 27.5 150.683 27.82 150.269 28.14C149.869 28.4467 149.363 28.7 148.749 28.9C148.136 29.1 147.423 29.2 146.609 29.2ZM144.909 22.74H148.289V22.7C148.289 22.2733 148.223 21.9 148.089 21.58C147.969 21.26 147.776 21.0133 147.509 20.84C147.256 20.6667 146.949 20.58 146.589 20.58C146.229 20.58 145.923 20.6667 145.669 20.84C145.429 21.0133 145.243 21.26 145.109 21.58C144.976 21.9 144.909 22.2733 144.909 22.7V22.74ZM157.504 29.2C156.744 29.2 156.064 29.0267 155.464 28.68C154.878 28.3333 154.418 27.8267 154.084 27.16C153.751 26.48 153.584 25.6533 153.584 24.68V19.1C153.584 18.9533 153.631 18.8333 153.724 18.74C153.818 18.6467 153.938 18.6 154.084 18.6H156.584C156.731 18.6 156.851 18.6467 156.944 18.74C157.038 18.8333 157.084 18.9533 157.084 19.1V24.56C157.084 25.8667 157.671 26.52 158.844 26.52C159.391 26.52 159.824 26.3533 160.144 26.02C160.478 25.6733 160.644 25.1867 160.644 24.56V19.1C160.644 18.9533 160.691 18.8333 160.784 18.74C160.878 18.6467 160.998 18.6 161.144 18.6H163.644C163.791 18.6 163.911 18.6467 164.004 18.74C164.098 18.8333 164.144 18.9533 164.144 19.1V28.5C164.144 28.6467 164.098 28.7667 164.004 28.86C163.911 28.9533 163.791 29 163.644 29H161.324C161.191 29 161.071 28.9533 160.964 28.86C160.871 28.7667 160.824 28.6467 160.824 28.5V27.74C160.478 28.22 160.024 28.5867 159.464 28.84C158.918 29.08 158.264 29.2 157.504 29.2ZM166.997 29C166.85 29 166.73 28.9533 166.637 28.86C166.544 28.7667 166.497 28.6467 166.497 28.5V19.1C166.497 18.9667 166.544 18.8533 166.637 18.76C166.73 18.6533 166.85 18.6 166.997 18.6H169.297C169.444 18.6 169.564 18.6533 169.657 18.76C169.75 18.8533 169.797 18.9667 169.797 19.1V19.9C170.157 19.4867 170.584 19.1667 171.077 18.94C171.584 18.7133 172.15 18.6 172.777 18.6H173.657C173.79 18.6 173.904 18.6467 173.997 18.74C174.104 18.8333 174.157 18.9533 174.157 19.1V21.16C174.157 21.2933 174.104 21.4133 173.997 21.52C173.904 21.6133 173.79 21.66 173.657 21.66H171.717C171.17 21.66 170.744 21.8133 170.437 22.12C170.144 22.4133 169.997 22.8333 169.997 23.38V28.5C169.997 28.6467 169.944 28.7667 169.837 28.86C169.744 28.9533 169.624 29 169.477 29H166.997Z" fill="#004AAD"/>
<path d="M175.584 29C175.474 29 175.384 28.965 175.314 28.895C175.244 28.825 175.209 28.735 175.209 28.625V26.72C175.209 26.62 175.244 26.535 175.314 26.465C175.384 26.385 175.474 26.345 175.584 26.345H177.474C177.584 26.345 177.674 26.385 177.744 26.465C177.824 26.535 177.864 26.62 177.864 26.72V28.625C177.864 28.735 177.824 28.825 177.744 28.895C177.674 28.965 177.584 29 177.474 29H175.584ZM180.455 29C180.355 29 180.265 28.965 180.185 28.895C180.115 28.825 180.08 28.735 180.08 28.625V23.165H178.94C178.83 23.165 178.74 23.13 178.67 23.06C178.6 22.99 178.565 22.9 178.565 22.79V21.575C178.565 21.465 178.6 21.375 178.67 21.305C178.74 21.235 178.83 21.2 178.94 21.2H180.08V20.72C180.08 20.04 180.21 19.495 180.47 19.085C180.74 18.665 181.12 18.365 181.61 18.185C182.1 17.995 182.685 17.9 183.365 17.9H184.535C184.635 17.9 184.72 17.935 184.79 18.005C184.87 18.075 184.91 18.165 184.91 18.275V19.49C184.91 19.6 184.87 19.69 184.79 19.76C184.72 19.83 184.635 19.865 184.535 19.865H183.485C183.145 19.865 182.905 19.945 182.765 20.105C182.635 20.265 182.57 20.495 182.57 20.795V21.2H184.385C184.485 21.2 184.57 21.235 184.64 21.305C184.72 21.375 184.76 21.465 184.76 21.575V22.79C184.76 22.9 184.72 22.99 184.64 23.06C184.57 23.13 184.485 23.165 184.385 23.165H182.57V28.625C182.57 28.735 182.535 28.825 182.465 28.895C182.395 28.965 182.305 29 182.195 29H180.455ZM186.206 29C186.096 29 186.006 28.965 185.936 28.895C185.866 28.825 185.831 28.735 185.831 28.625V21.575C185.831 21.475 185.866 21.39 185.936 21.32C186.006 21.24 186.096 21.2 186.206 21.2H187.931C188.041 21.2 188.131 21.24 188.201 21.32C188.271 21.39 188.306 21.475 188.306 21.575V22.175C188.576 21.865 188.896 21.625 189.266 21.455C189.646 21.285 190.071 21.2 190.541 21.2H191.201C191.301 21.2 191.386 21.235 191.456 21.305C191.536 21.375 191.576 21.465 191.576 21.575V23.12C191.576 23.22 191.536 23.31 191.456 23.39C191.386 23.46 191.301 23.495 191.201 23.495H189.746C189.336 23.495 189.016 23.61 188.786 23.84C188.566 24.06 188.456 24.375 188.456 24.785V28.625C188.456 28.735 188.416 28.825 188.336 28.895C188.266 28.965 188.176 29 188.066 29H186.206Z" fill="#FF3311"/>
<path d="M38.4697 30.8862C39.2146 29.6089 39.7919 28.2449 40.1881 26.8265L43.2431 26.2439C43.7372 26.1521 44.1831 25.8946 44.5038 25.5158C44.8245 25.137 45 24.6607 45 24.1689V19.8975C44.9997 19.4073 44.8252 18.9325 44.5063 18.5542C44.1875 18.1759 43.7442 17.9177 43.2521 17.8238L40.1651 17.2324C39.767 15.838 39.195 14.4969 38.462 13.2391L40.256 10.6354C40.5269 10.2266 40.6468 9.73961 40.5957 9.2551C40.5447 8.7706 40.3259 8.31771 39.9755 7.97151L36.8922 4.95805C36.5376 4.60916 36.0696 4.39231 35.5689 4.34496C35.0682 4.29762 34.5663 4.42275 34.1499 4.69874L31.4844 6.45293C30.2172 5.74906 28.8656 5.20151 27.4606 4.82279L26.8404 1.70661C26.7441 1.22559 26.4797 0.792288 26.0925 0.480936C25.7053 0.169584 25.2195 -0.000435644 24.7182 2.25844e-06H20.3497C19.8491 -0.000713565 19.3638 0.168753 18.9769 0.479389C18.59 0.790026 18.3256 1.22251 18.2289 1.70279L17.6061 4.82398C16.2125 5.20191 14.8712 5.74429 13.6117 6.43914L10.9052 4.65743C10.4904 4.3779 9.98844 4.24962 9.4868 4.29496C8.98516 4.34029 8.51572 4.55637 8.16034 4.9055L5.07977 7.91765C4.71939 8.26253 4.49447 8.7203 4.44434 9.21092C4.39421 9.70154 4.52206 10.1938 4.80553 10.6016L6.61366 13.2278C5.89194 14.4603 5.32691 15.7744 4.93112 17.1409L1.75566 17.7486C1.2619 17.8408 0.816453 18.0985 0.496009 18.4772C0.175564 18.8559 0.000164472 19.332 0 19.8235V24.095C0.000526864 24.5851 0.175104 25.0598 0.493902 25.4381C0.8127 25.8163 1.25593 26.0746 1.74786 26.1687L4.867 26.7663C5.25042 28.161 5.8105 29.5033 6.53424 30.7622L4.7543 33.3408C4.47336 33.7483 4.34606 34.2386 4.39422 34.7278C4.44238 35.217 4.663 35.6746 5.01828 36.0222L8.10788 39.0344C8.45991 39.3844 8.92664 39.6021 9.42636 39.6496C9.92607 39.697 10.4269 39.571 10.8412 39.2938L13.4247 37.5935C14.7235 38.327 16.111 38.899 17.5548 39.2962L18.1571 42.3134C18.2624 42.7888 18.5303 43.215 18.9165 43.5216C19.3028 43.8282 19.7843 43.9969 20.2818 44H24.6504C25.1519 43.9996 25.6376 43.8288 26.0245 43.5168C26.4114 43.2048 26.6753 42.771 26.7711 42.2897L27.3594 39.3376C28.8177 38.9506 30.2203 38.3856 31.5343 37.6561L34.0986 39.3451C34.5157 39.6181 35.0166 39.7416 35.5163 39.6946C36.0159 39.6475 36.4835 39.4329 36.8397 39.087L39.9242 36.071C40.2762 35.722 40.4951 35.2655 40.5443 34.7777C40.5935 34.29 40.4701 33.8004 40.1946 33.3909L38.4697 30.8862ZM37.8341 25.4457C37.4485 27.146 36.7625 28.7675 35.8068 30.2371C35.6695 30.4476 35.5982 30.6927 35.6016 30.9423C35.605 31.1918 35.683 31.435 35.826 31.6418L37.8046 34.5148L35.2519 37.0108L32.3097 35.0724C32.0988 34.9331 31.851 34.857 31.5966 34.8532C31.3422 34.8494 31.0921 34.9182 30.877 35.0512C29.3648 35.9869 27.6975 36.6581 25.9498 37.0346C25.6999 37.0884 25.4716 37.2124 25.2929 37.3914C25.1141 37.5704 24.9928 37.7965 24.9438 38.042L24.2685 41.4338H20.6547L19.9717 38.0094C19.9233 37.7661 19.8038 37.5418 19.6278 37.3634C19.4518 37.1851 19.2267 37.0605 18.9798 37.0046C17.246 36.6141 15.5945 35.9328 14.0986 34.991C13.883 34.8553 13.6313 34.7844 13.3749 34.787C13.1184 34.7897 12.8684 34.8659 12.6557 35.006L9.69301 36.9569L7.14162 34.4698L9.17395 31.5265C9.31577 31.3212 9.39367 31.08 9.39822 30.8323C9.40277 30.5846 9.33378 30.3409 9.19959 30.1307C8.2675 28.6755 7.60025 27.0734 7.22744 25.3956C7.17367 25.1501 7.04739 24.9254 6.86424 24.7494C6.68109 24.5735 6.44914 24.4539 6.19716 24.4057L2.62445 23.7216V20.1969L6.24713 19.5041C6.49518 19.4566 6.7239 19.34 6.90578 19.1684C7.08765 18.9968 7.21492 18.7774 7.27227 18.5367C7.66389 16.8853 8.34131 15.3114 9.27528 13.8832C9.41357 13.6725 9.4857 13.4269 9.48275 13.1766C9.4798 12.9263 9.4019 12.6823 9.25868 12.4748L7.19544 9.47761L9.74432 6.98537L12.8352 9.0203C13.0457 9.15907 13.2929 9.23518 13.5467 9.2394C13.8005 9.24362 14.0502 9.17578 14.2654 9.04409C15.7281 8.14346 17.3372 7.49344 19.0235 7.12202C19.272 7.06728 19.4988 6.94299 19.6763 6.76432C19.8538 6.58564 19.9743 6.36032 20.023 6.11584L20.7304 2.56613H24.3377L25.0451 6.11584C25.0941 6.36074 25.2149 6.5864 25.3929 6.7653C25.5708 6.94419 25.7982 7.06858 26.0472 7.1233C27.742 7.49276 29.3584 8.14691 30.8245 9.05665C31.0393 9.19068 31.2897 9.26021 31.5445 9.25665C31.7994 9.25308 32.0476 9.17658 32.2584 9.0366L35.3032 7.03306L37.8559 9.52776L35.8183 12.4835C35.6753 12.6905 35.5973 12.9339 35.5939 13.1837C35.5905 13.4334 35.6618 13.6787 35.7991 13.8894C36.7441 15.3435 37.4276 16.945 37.82 18.6245C37.8771 18.8659 38.0044 19.086 38.1865 19.2583C38.3686 19.4306 38.5978 19.5477 38.8465 19.5955L42.3755 20.2709V23.7955L38.8643 24.4647C38.6136 24.5125 38.3826 24.6307 38.1996 24.805C38.0166 24.9792 37.8896 25.2019 37.8341 25.4457Z" fill="#004AAD"/>
<path d="M10 6.5L6.5 9.5L8.5 13L7.5 17L2.5 19.5V24L6.5 25L9.5 31L6.5 34.5L10 37L17 36.5L20.5 41.5H24L29 36.5L35.5 37.5L38.5 35L37.5 32.5L38.5 26.5L42.5 24V20L40 19.5L36 13L38.5 9.5L35.5 6.5L32 8.5L26 6.5L25 2H20.5L19 6L14 9L10 6.5Z" fill="#004AAD" stroke="#004AAD"/>
<path d="M13.9424 26.66L13.0424 20.12V12.74H17.4824V20.12L16.5824 26.66H13.9424ZM17.3624 28.91C17.4024 29.21 17.4224 29.48 17.4224 29.72C17.4424 29.94 17.4524 30.16 17.4524 30.38C17.4524 30.76 17.4224 31.24 17.3624 31.82C17.0024 31.88 16.6524 31.93 16.3124 31.97C15.9724 32.01 15.6324 32.03 15.2924 32.03C14.9724 32.03 14.6424 32.01 14.3024 31.97C13.9824 31.93 13.6524 31.88 13.3124 31.82C13.2724 31.54 13.2424 31.29 13.2224 31.07C13.2024 30.83 13.1924 30.6 13.1924 30.38C13.1924 30.18 13.2024 29.96 13.2224 29.72C13.2424 29.48 13.2724 29.21 13.3124 28.91C13.9724 28.79 14.6524 28.73 15.3524 28.73C16.0124 28.73 16.6824 28.79 17.3624 28.91ZM33.025 18.89V24.95L21.565 29.09V24.77L29.005 21.95V21.89L21.565 19.1V14.75L33.025 18.89Z" fill="white"/>
</svg>
